i2c/build/test5.log
==> Compiling tb_i2c
==> Running tb_i2c

==================================================
   I2C CONTROLLER COMPREHENSIVE TESTBENCH
==================================================
VCD info: dumpfile tb_i2c.vcd opened for output.

TEST 1: Multi-Byte Write (0x3C)
  [FAIL]                                        Byte 1 Received Correctly (got xx)
  [FAIL]                                        Byte 2 Received Correctly (got xx)
  [FAIL]                                        Byte 3 Received Correctly (got xx)

TEST 2: Master Read (0x3C)
  [FAIL]                                       Master Read Byte 1 Correct (got xx)
  [FAIL]                                       Master Read Byte 2 Correct (got xx)

TEST 3: NACK Detection (Addressing 0x7F)
  [PASS]                                   NACK Flag set in Master Status (got 1f)
  [PASS]                            Slave RX FIFO remains empty (Correct) (got 01)

TEST 4: Master TX FIFO Overflow Stress
  [PASS]                                      Master TX FIFO reports FULL (got 01)

TEST 5: Repeated START (Write Addr -> Read Data)
  [FAIL]                                   Repeated START Read Successful (got xx)

==================================================
   FINAL TEST REPORT
   Tests Run:    5
   Passed:       3
   Failed:       6
==================================================
   RESULT: BUGS DETECTED
==================================================

tb/tb_i2c.v:232: $finish called at 13565000 (1ps)
==> VCD written to build/vcd/
==> Compiling tb_i2c_bit_cnt
==> Running tb_i2c_bit_cnt
=== tb_i2c_bit_cnt START ===
VCD info: dumpfile tb_i2c_bit_cnt.vcd opened for output.
t=0 | en=0 clr=0 | cnt=x done=x
t=5000 | en=0 clr=0 | cnt=0 done=0
PASS [   RESET] cnt=0 done=0
t=26000 | en=1 clr=0 | cnt=0 done=0
t=35000 | en=1 clr=0 | cnt=1 done=0
PASS [COUNT_UP] cnt=1 done=0
t=45000 | en=1 clr=0 | cnt=2 done=0
PASS [COUNT_UP] cnt=2 done=0
t=55000 | en=1 clr=0 | cnt=3 done=0
PASS [COUNT_UP] cnt=3 done=0
t=65000 | en=1 clr=0 | cnt=4 done=0
PASS [COUNT_UP] cnt=4 done=0
t=75000 | en=1 clr=0 | cnt=5 done=0
PASS [COUNT_UP] cnt=5 done=0
t=85000 | en=1 clr=0 | cnt=6 done=0
PASS [COUNT_UP] cnt=6 done=0
t=95000 | en=1 clr=0 | cnt=7 done=0
PASS [COUNT_UP] cnt=7 done=0
t=105000 | en=1 clr=0 | cnt=8 done=1
PASS [ONE_AT_8] cnt=8 done=1
PASS [OLD_AT_8] cnt=8 done=1
t=126000 | en=0 clr=0 | cnt=8 done=1
t=135000 | en=0 clr=0 | cnt=0 done=0
t=156000 | en=1 clr=0 | cnt=0 done=0
t=165000 | en=1 clr=0 | cnt=1 done=0
t=175000 | en=1 clr=0 | cnt=2 done=0
t=185000 | en=1 clr=0 | cnt=3 done=0
t=186000 | en=0 clr=0 | cnt=3 done=0
PASS [ EN_HOLD] cnt=3 done=0
t=206000 | en=1 clr=1 | cnt=3 done=0
t=215000 | en=1 clr=1 | cnt=0 done=0
PASS [   CLEAR] cnt=0 done=0
t=216000 | en=1 clr=0 | cnt=0 done=0
t=225000 | en=1 clr=0 | cnt=1 done=0
t=235000 | en=1 clr=0 | cnt=2 done=0
t=245000 | en=1 clr=0 | cnt=3 done=0
t=255000 | en=1 clr=0 | cnt=4 done=0
t=265000 | en=1 clr=0 | cnt=5 done=0
t=275000 | en=1 clr=0 | cnt=6 done=0
t=285000 | en=1 clr=0 | cnt=7 done=0
t=295000 | en=1 clr=0 | cnt=8 done=1
PASS [LL_CYCLE] cnt=8 done=1
=== tb_i2c_bit_cnt DONE ===
tb/tb_i2c_bit_cnt.v:133: $finish called at 296000 (1ps)
==> VCD written to build/vcd/
==> Compiling tb_i2c_bit_ctrl
==> Running tb_i2c_bit_ctrl
=== tb_i2c_bit_ctrl START ===
--- TEST1: Reset ---
VCD info: dumpfile tb_i2c_bit_ctrl.vcd opened for output.
t=0 | en=0 scl=1 sda_in=1 | sda_out=1 sda_oe=0 byte_done=0 rx=0x00
PASS [RESET_EN_LOW] got=0
PASS [RESET_SDA_OE_LOW] got=0
PASS [RESET_BYTE_DONE_LOW] got=0
PASS [RESET_RX_VALID_LOW] got=0
--- TEST2: TX byte 0xA5 = 1010_0101 ---
PASS [TX_BIT7] serial_out=1
t=66000 | en=1 scl=0 sda_in=1 | sda_out=1 sda_oe=0 byte_done=0 rx=0x00
t=75000 | en=1 scl=0 sda_in=1 | sda_out=1 sda_oe=1 byte_done=0 rx=0x00
t=96000 | en=1 scl=1 sda_in=1 | sda_out=1 sda_oe=1 byte_done=0 rx=0x00
t=115000 | en=1 scl=1 sda_in=1 | sda_out=1 sda_oe=1 byte_done=0 rx=0x01
FAIL [TX_BIT6] got=1 exp=0
t=116000 | en=1 scl=0 sda_in=1 | sda_out=1 sda_oe=1 byte_done=0 rx=0x01
t=135000 | en=1 scl=0 sda_in=1 | sda_out=0 sda_oe=1 byte_done=0 rx=0x01
t=146000 | en=1 scl=1 sda_in=1 | sda_out=0 sda_oe=1 byte_done=0 rx=0x01
t=165000 | en=1 scl=1 sda_in=1 | sda_out=0 sda_oe=1 byte_done=0 rx=0x03
FAIL [TX_BIT5] got=0 exp=1
t=166000 | en=1 scl=0 sda_in=1 | sda_out=0 sda_oe=1 byte_done=0 rx=0x03
t=185000 | en=1 scl=0 sda_in=1 | sda_out=1 sda_oe=1 byte_done=0 rx=0x03
t=196000 | en=1 scl=1 sda_in=1 | sda_out=1 sda_oe=1 byte_done=0 rx=0x03
t=215000 | en=1 scl=1 sda_in=1 | sda_out=1 sda_oe=1 byte_done=0 rx=0x07
FAIL [TX_BIT4] got=1 exp=0
t=216000 | en=1 scl=0 sda_in=1 | sda_out=1 sda_oe=1 byte_done=0 rx=0x07
t=235000 | en=1 scl=0 sda_in=1 | sda_out=0 sda_oe=1 byte_done=0 rx=0x07
t=246000 | en=1 scl=1 sda_in=1 | sda_out=0 sda_oe=1 byte_done=0 rx=0x07
t=265000 | en=1 scl=1 sda_in=1 | sda_out=0 sda_oe=1 byte_done=0 rx=0x0f
PASS [TX_BIT3] serial_out=0
t=266000 | en=1 scl=0 sda_in=1 | sda_out=0 sda_oe=1 byte_done=0 rx=0x0f
t=296000 | en=1 scl=1 sda_in=1 | sda_out=0 sda_oe=1 byte_done=0 rx=0x0f
t=315000 | en=1 scl=1 sda_in=1 | sda_out=0 sda_oe=1 byte_done=0 rx=0x1f
FAIL [TX_BIT2] got=0 exp=1
t=316000 | en=1 scl=0 sda_in=1 | sda_out=0 sda_oe=1 byte_done=0 rx=0x1f
t=335000 | en=1 scl=0 sda_in=1 | sda_out=1 sda_oe=1 byte_done=0 rx=0x1f
t=346000 | en=1 scl=1 sda_in=1 | sda_out=1 sda_oe=1 byte_done=0 rx=0x1f
t=365000 | en=1 scl=1 sda_in=1 | sda_out=1 sda_oe=1 byte_done=0 rx=0x3f
FAIL [TX_BIT1] got=1 exp=0
t=366000 | en=1 scl=0 sda_in=1 | sda_out=1 sda_oe=1 byte_done=0 rx=0x3f
t=385000 | en=1 scl=0 sda_in=1 | sda_out=0 sda_oe=1 byte_done=0 rx=0x3f
t=396000 | en=1 scl=1 sda_in=1 | sda_out=0 sda_oe=1 byte_done=0 rx=0x3f
t=415000 | en=1 scl=1 sda_in=1 | sda_out=0 sda_oe=1 byte_done=0 rx=0x7f
FAIL [TX_BIT0] got=0 exp=1
t=416000 | en=1 scl=0 sda_in=1 | sda_out=0 sda_oe=1 byte_done=0 rx=0x7f
t=435000 | en=1 scl=0 sda_in=1 | sda_out=1 sda_oe=1 byte_done=0 rx=0x7f
t=446000 | en=1 scl=1 sda_in=1 | sda_out=1 sda_oe=1 byte_done=0 rx=0x7f
t=465000 | en=1 scl=1 sda_in=1 | sda_out=1 sda_oe=1 byte_done=0 rx=0xff
t=466000 | en=1 scl=0 sda_in=1 | sda_out=1 sda_oe=1 byte_done=0 rx=0xff
t=486000 | en=1 scl=0 sda_in=0 | sda_out=1 sda_oe=1 byte_done=0 rx=0xff
t=496000 | en=1 scl=1 sda_in=0 | sda_out=1 sda_oe=1 byte_done=0 rx=0xff
t=505000 | en=1 scl=1 sda_in=0 | sda_out=1 sda_oe=1 byte_done=1 rx=0xff
t=515000 | en=1 scl=1 sda_in=0 | sda_out=1 sda_oe=1 byte_done=0 rx=0xfe
--- TEST3: RX byte 0xB2 = 1011_0010 ---
t=516000 | en=0 scl=1 sda_in=1 | sda_out=1 sda_oe=0 byte_done=0 rx=0x00
t=556000 | en=1 scl=0 sda_in=1 | sda_out=1 sda_oe=0 byte_done=0 rx=0x00
t=565000 | en=1 scl=0 sda_in=1 | sda_out=1 sda_oe=1 byte_done=0 rx=0x00
t=586000 | en=1 scl=1 sda_in=1 | sda_out=1 sda_oe=1 byte_done=0 rx=0x00
t=605000 | en=1 scl=1 sda_in=1 | sda_out=1 sda_oe=1 byte_done=0 rx=0x01
t=606000 | en=1 scl=0 sda_in=1 | sda_out=1 sda_oe=1 byte_done=0 rx=0x01
t=626000 | en=1 scl=0 sda_in=0 | sda_out=1 sda_oe=1 byte_done=0 rx=0x01
t=636000 | en=1 scl=1 sda_in=0 | sda_out=1 sda_oe=1 byte_done=0 rx=0x01
t=655000 | en=1 scl=1 sda_in=0 | sda_out=1 sda_oe=1 byte_done=0 rx=0x02
t=656000 | en=1 scl=0 sda_in=0 | sda_out=1 sda_oe=1 byte_done=0 rx=0x02
t=676000 | en=1 scl=0 sda_in=1 | sda_out=1 sda_oe=1 byte_done=0 rx=0x02
t=686000 | en=1 scl=1 sda_in=1 | sda_out=1 sda_oe=1 byte_done=0 rx=0x02
t=705000 | en=1 scl=1 sda_in=1 | sda_out=1 sda_oe=1 byte_done=0 rx=0x05
t=706000 | en=1 scl=0 sda_in=1 | sda_out=1 sda_oe=1 byte_done=0 rx=0x05
t=736000 | en=1 scl=1 sda_in=1 | sda_out=1 sda_oe=1 byte_done=0 rx=0x05
t=755000 | en=1 scl=1 sda_in=1 | sda_out=1 sda_oe=1 byte_done=0 rx=0x0b
t=756000 | en=1 scl=0 sda_in=1 | sda_out=1 sda_oe=1 byte_done=0 rx=0x0b
t=776000 | en=1 scl=0 sda_in=0 | sda_out=1 sda_oe=1 byte_done=0 rx=0x0b
t=786000 | en=1 scl=1 sda_in=0 | sda_out=1 sda_oe=1 byte_done=0 rx=0x0b
t=805000 | en=1 scl=1 sda_in=0 | sda_out=1 sda_oe=1 byte_done=0 rx=0x16
t=806000 | en=1 scl=0 sda_in=0 | sda_out=1 sda_oe=1 byte_done=0 rx=0x16
t=836000 | en=1 scl=1 sda_in=0 | sda_out=1 sda_oe=1 byte_done=0 rx=0x16
t=855000 | en=1 scl=1 sda_in=0 | sda_out=1 sda_oe=1 byte_done=0 rx=0x2c
t=856000 | en=1 scl=0 sda_in=0 | sda_out=1 sda_oe=1 byte_done=0 rx=0x2c
t=876000 | en=1 scl=0 sda_in=1 | sda_out=1 sda_oe=1 byte_done=0 rx=0x2c
t=886000 | en=1 scl=1 sda_in=1 | sda_out=1 sda_oe=1 byte_done=0 rx=0x2c
t=905000 | en=1 scl=1 sda_in=1 | sda_out=1 sda_oe=1 byte_done=0 rx=0x59
t=906000 | en=1 scl=0 sda_in=1 | sda_out=1 sda_oe=1 byte_done=0 rx=0x59
t=926000 | en=1 scl=0 sda_in=0 | sda_out=1 sda_oe=1 byte_done=0 rx=0x59
t=936000 | en=1 scl=1 sda_in=0 | sda_out=1 sda_oe=1 byte_done=0 rx=0x59
t=955000 | en=1 scl=1 sda_in=0 | sda_out=1 sda_oe=1 byte_done=0 rx=0xb2
t=956000 | en=1 scl=0 sda_in=0 | sda_out=1 sda_oe=1 byte_done=0 rx=0xb2
t=986000 | en=1 scl=1 sda_in=0 | sda_out=1 sda_oe=1 byte_done=0 rx=0xb2
t=995000 | en=1 scl=1 sda_in=0 | sda_out=1 sda_oe=1 byte_done=1 rx=0xb2
t=1005000 | en=1 scl=1 sda_in=0 | sda_out=1 sda_oe=1 byte_done=0 rx=0x64
FAIL [RX_BYTE_0xB2] got=0x64 exp=0xb2 at t=1026000
--- TEST4: byte_done fires once ---
t=1026000 | en=0 scl=1 sda_in=1 | sda_out=1 sda_oe=0 byte_done=0 rx=0x00
t=1066000 | en=1 scl=0 sda_in=1 | sda_out=1 sda_oe=0 byte_done=0 rx=0x00
t=1075000 | en=1 scl=0 sda_in=1 | sda_out=1 sda_oe=1 byte_done=0 rx=0x00
t=1096000 | en=1 scl=1 sda_in=1 | sda_out=1 sda_oe=1 byte_done=0 rx=0x00
t=1115000 | en=1 scl=1 sda_in=1 | sda_out=1 sda_oe=1 byte_done=0 rx=0x01
t=1116000 | en=1 scl=0 sda_in=1 | sda_out=1 sda_oe=1 byte_done=0 rx=0x01
t=1135000 | en=1 scl=0 sda_in=1 | sda_out=0 sda_oe=1 byte_done=0 rx=0x01
t=1136000 | en=1 scl=0 sda_in=0 | sda_out=0 sda_oe=1 byte_done=0 rx=0x01
t=1146000 | en=1 scl=1 sda_in=0 | sda_out=0 sda_oe=1 byte_done=0 rx=0x01
t=1165000 | en=1 scl=1 sda_in=0 | sda_out=0 sda_oe=1 byte_done=0 rx=0x02
t=1166000 | en=1 scl=0 sda_in=0 | sda_out=0 sda_oe=1 byte_done=0 rx=0x02
t=1185000 | en=1 scl=0 sda_in=0 | sda_out=1 sda_oe=1 byte_done=0 rx=0x02
t=1186000 | en=1 scl=0 sda_in=1 | sda_out=1 sda_oe=1 byte_done=0 rx=0x02
t=1196000 | en=1 scl=1 sda_in=1 | sda_out=1 sda_oe=1 byte_done=0 rx=0x02
t=1215000 | en=1 scl=1 sda_in=1 | sda_out=1 sda_oe=1 byte_done=0 rx=0x05
t=1216000 | en=1 scl=0 sda_in=1 | sda_out=1 sda_oe=1 byte_done=0 rx=0x05
t=1235000 | en=1 scl=0 sda_in=1 | sda_out=0 sda_oe=1 byte_done=0 rx=0x05
t=1236000 | en=1 scl=0 sda_in=0 | sda_out=0 sda_oe=1 byte_done=0 rx=0x05
t=1246000 | en=1 scl=1 sda_in=0 | sda_out=0 sda_oe=1 byte_done=0 rx=0x05
t=1265000 | en=1 scl=1 sda_in=0 | sda_out=0 sda_oe=1 byte_done=0 rx=0x0a
t=1266000 | en=1 scl=0 sda_in=0 | sda_out=0 sda_oe=1 byte_done=0 rx=0x0a
t=1296000 | en=1 scl=1 sda_in=0 | sda_out=0 sda_oe=1 byte_done=0 rx=0x0a
t=1315000 | en=1 scl=1 sda_in=0 | sda_out=0 sda_oe=1 byte_done=0 rx=0x14
t=1316000 | en=1 scl=0 sda_in=0 | sda_out=0 sda_oe=1 byte_done=0 rx=0x14
t=1335000 | en=1 scl=0 sda_in=0 | sda_out=1 sda_oe=1 byte_done=0 rx=0x14
t=1336000 | en=1 scl=0 sda_in=1 | sda_out=1 sda_oe=1 byte_done=0 rx=0x14
t=1346000 | en=1 scl=1 sda_in=1 | sda_out=1 sda_oe=1 byte_done=0 rx=0x14
t=1365000 | en=1 scl=1 sda_in=1 | sda_out=1 sda_oe=1 byte_done=0 rx=0x29
t=1366000 | en=1 scl=0 sda_in=1 | sda_out=1 sda_oe=1 byte_done=0 rx=0x29
t=1385000 | en=1 scl=0 sda_in=1 | sda_out=0 sda_oe=1 byte_done=0 rx=0x29
t=1386000 | en=1 scl=0 sda_in=0 | sda_out=0 sda_oe=1 byte_done=0 rx=0x29
t=1396000 | en=1 scl=1 sda_in=0 | sda_out=0 sda_oe=1 byte_done=0 rx=0x29
t=1415000 | en=1 scl=1 sda_in=0 | sda_out=0 sda_oe=1 byte_done=0 rx=0x52
t=1416000 | en=1 scl=0 sda_in=0 | sda_out=0 sda_oe=1 byte_done=0 rx=0x52
t=1435000 | en=1 scl=0 sda_in=0 | sda_out=1 sda_oe=1 byte_done=0 rx=0x52
t=1436000 | en=1 scl=0 sda_in=1 | sda_out=1 sda_oe=1 byte_done=0 rx=0x52
t=1446000 | en=1 scl=1 sda_in=1 | sda_out=1 sda_oe=1 byte_done=0 rx=0x52
t=1465000 | en=1 scl=1 sda_in=1 | sda_out=1 sda_oe=1 byte_done=0 rx=0xa5
t=1466000 | en=1 scl=0 sda_in=1 | sda_out=1 sda_oe=1 byte_done=0 rx=0xa5
t=1486000 | en=1 scl=0 sda_in=0 | sda_out=1 sda_oe=1 byte_done=0 rx=0xa5
t=1496000 | en=1 scl=1 sda_in=0 | sda_out=1 sda_oe=1 byte_done=0 rx=0xa5
t=1505000 | en=1 scl=1 sda_in=0 | sda_out=1 sda_oe=1 byte_done=1 rx=0xa5
t=1515000 | en=1 scl=1 sda_in=0 | sda_out=1 sda_oe=1 byte_done=0 rx=0x4a
PASS [BYTE_DONE] fired 1 time
--- TEST5: sda_sampled ACK=0 ---
t=1536000 | en=0 scl=1 sda_in=1 | sda_out=1 sda_oe=0 byte_done=0 rx=0x00
t=1576000 | en=1 scl=0 sda_in=1 | sda_out=1 sda_oe=0 byte_done=0 rx=0x00
t=1585000 | en=1 scl=0 sda_in=1 | sda_out=1 sda_oe=1 byte_done=0 rx=0x00
t=1606000 | en=1 scl=1 sda_in=1 | sda_out=1 sda_oe=1 byte_done=0 rx=0x00
t=1625000 | en=1 scl=1 sda_in=1 | sda_out=1 sda_oe=1 byte_done=0 rx=0x01
t=1626000 | en=1 scl=0 sda_in=1 | sda_out=1 sda_oe=1 byte_done=0 rx=0x01
t=1645000 | en=1 scl=0 sda_in=1 | sda_out=0 sda_oe=1 byte_done=0 rx=0x01
t=1646000 | en=1 scl=0 sda_in=0 | sda_out=0 sda_oe=1 byte_done=0 rx=0x01
t=1656000 | en=1 scl=1 sda_in=0 | sda_out=0 sda_oe=1 byte_done=0 rx=0x01
t=1675000 | en=1 scl=1 sda_in=0 | sda_out=0 sda_oe=1 byte_done=0 rx=0x02
t=1676000 | en=1 scl=0 sda_in=0 | sda_out=0 sda_oe=1 byte_done=0 rx=0x02
t=1695000 | en=1 scl=0 sda_in=0 | sda_out=1 sda_oe=1 byte_done=0 rx=0x02
t=1696000 | en=1 scl=0 sda_in=1 | sda_out=1 sda_oe=1 byte_done=0 rx=0x02
t=1706000 | en=1 scl=1 sda_in=1 | sda_out=1 sda_oe=1 byte_done=0 rx=0x02
t=1725000 | en=1 scl=1 sda_in=1 | sda_out=1 sda_oe=1 byte_done=0 rx=0x05
t=1726000 | en=1 scl=0 sda_in=1 | sda_out=1 sda_oe=1 byte_done=0 rx=0x05
t=1745000 | en=1 scl=0 sda_in=1 | sda_out=0 sda_oe=1 byte_done=0 rx=0x05
t=1746000 | en=1 scl=0 sda_in=0 | sda_out=0 sda_oe=1 byte_done=0 rx=0x05
t=1756000 | en=1 scl=1 sda_in=0 | sda_out=0 sda_oe=1 byte_done=0 rx=0x05
t=1775000 | en=1 scl=1 sda_in=0 | sda_out=0 sda_oe=1 byte_done=0 rx=0x0a
t=1776000 | en=1 scl=0 sda_in=0 | sda_out=0 sda_oe=1 byte_done=0 rx=0x0a
t=1806000 | en=1 scl=1 sda_in=0 | sda_out=0 sda_oe=1 byte_done=0 rx=0x0a
t=1825000 | en=1 scl=1 sda_in=0 | sda_out=0 sda_oe=1 byte_done=0 rx=0x14
t=1826000 | en=1 scl=0 sda_in=0 | sda_out=0 sda_oe=1 byte_done=0 rx=0x14
t=1845000 | en=1 scl=0 sda_in=0 | sda_out=1 sda_oe=1 byte_done=0 rx=0x14
t=1846000 | en=1 scl=0 sda_in=1 | sda_out=1 sda_oe=1 byte_done=0 rx=0x14
t=1856000 | en=1 scl=1 sda_in=1 | sda_out=1 sda_oe=1 byte_done=0 rx=0x14
t=1875000 | en=1 scl=1 sda_in=1 | sda_out=1 sda_oe=1 byte_done=0 rx=0x29
t=1876000 | en=1 scl=0 sda_in=1 | sda_out=1 sda_oe=1 byte_done=0 rx=0x29
t=1895000 | en=1 scl=0 sda_in=1 | sda_out=0 sda_oe=1 byte_done=0 rx=0x29
t=1896000 | en=1 scl=0 sda_in=0 | sda_out=0 sda_oe=1 byte_done=0 rx=0x29
t=1906000 | en=1 scl=1 sda_in=0 | sda_out=0 sda_oe=1 byte_done=0 rx=0x29
t=1925000 | en=1 scl=1 sda_in=0 | sda_out=0 sda_oe=1 byte_done=0 rx=0x52
t=1926000 | en=1 scl=0 sda_in=0 | sda_out=0 sda_oe=1 byte_done=0 rx=0x52
t=1945000 | en=1 scl=0 sda_in=0 | sda_out=1 sda_oe=1 byte_done=0 rx=0x52
t=1946000 | en=1 scl=0 sda_in=1 | sda_out=1 sda_oe=1 byte_done=0 rx=0x52
t=1956000 | en=1 scl=1 sda_in=1 | sda_out=1 sda_oe=1 byte_done=0 rx=0x52
t=1975000 | en=1 scl=1 sda_in=1 | sda_out=1 sda_oe=1 byte_done=0 rx=0xa5
t=1976000 | en=1 scl=0 sda_in=1 | sda_out=1 sda_oe=1 byte_done=0 rx=0xa5
t=1996000 | en=1 scl=0 sda_in=0 | sda_out=1 sda_oe=1 byte_done=0 rx=0xa5
t=2006000 | en=1 scl=1 sda_in=0 | sda_out=1 sda_oe=1 byte_done=0 rx=0xa5
t=2015000 | en=1 scl=1 sda_in=0 | sda_out=1 sda_oe=1 byte_done=1 rx=0xa5
t=2025000 | en=1 scl=1 sda_in=0 | sda_out=1 sda_oe=1 byte_done=0 rx=0x4a
PASS [SDA_SAMPLED_ACK] got=0
    sda_sampled=0 = ACK ✅
--- TEST6: sda_sampled NACK=1 ---
t=2046000 | en=0 scl=1 sda_in=1 | sda_out=1 sda_oe=0 byte_done=0 rx=0x00
t=2086000 | en=1 scl=0 sda_in=1 | sda_out=1 sda_oe=0 byte_done=0 rx=0x00
t=2095000 | en=1 scl=0 sda_in=1 | sda_out=1 sda_oe=1 byte_done=0 rx=0x00
t=2116000 | en=1 scl=1 sda_in=1 | sda_out=1 sda_oe=1 byte_done=0 rx=0x00
t=2135000 | en=1 scl=1 sda_in=1 | sda_out=1 sda_oe=1 byte_done=0 rx=0x01
t=2136000 | en=1 scl=0 sda_in=1 | sda_out=1 sda_oe=1 byte_done=0 rx=0x01
t=2155000 | en=1 scl=0 sda_in=1 | sda_out=0 sda_oe=1 byte_done=0 rx=0x01
t=2156000 | en=1 scl=0 sda_in=0 | sda_out=0 sda_oe=1 byte_done=0 rx=0x01
t=2166000 | en=1 scl=1 sda_in=0 | sda_out=0 sda_oe=1 byte_done=0 rx=0x01
t=2185000 | en=1 scl=1 sda_in=0 | sda_out=0 sda_oe=1 byte_done=0 rx=0x02
t=2186000 | en=1 scl=0 sda_in=0 | sda_out=0 sda_oe=1 byte_done=0 rx=0x02
t=2205000 | en=1 scl=0 sda_in=0 | sda_out=1 sda_oe=1 byte_done=0 rx=0x02
t=2206000 | en=1 scl=0 sda_in=1 | sda_out=1 sda_oe=1 byte_done=0 rx=0x02
t=2216000 | en=1 scl=1 sda_in=1 | sda_out=1 sda_oe=1 byte_done=0 rx=0x02
t=2235000 | en=1 scl=1 sda_in=1 | sda_out=1 sda_oe=1 byte_done=0 rx=0x05
t=2236000 | en=1 scl=0 sda_in=1 | sda_out=1 sda_oe=1 byte_done=0 rx=0x05
t=2255000 | en=1 scl=0 sda_in=1 | sda_out=0 sda_oe=1 byte_done=0 rx=0x05
t=2256000 | en=1 scl=0 sda_in=0 | sda_out=0 sda_oe=1 byte_done=0 rx=0x05
t=2266000 | en=1 scl=1 sda_in=0 | sda_out=0 sda_oe=1 byte_done=0 rx=0x05
t=2285000 | en=1 scl=1 sda_in=0 | sda_out=0 sda_oe=1 byte_done=0 rx=0x0a
t=2286000 | en=1 scl=0 sda_in=0 | sda_out=0 sda_oe=1 byte_done=0 rx=0x0a
t=2316000 | en=1 scl=1 sda_in=0 | sda_out=0 sda_oe=1 byte_done=0 rx=0x0a
t=2335000 | en=1 scl=1 sda_in=0 | sda_out=0 sda_oe=1 byte_done=0 rx=0x14
t=2336000 | en=1 scl=0 sda_in=0 | sda_out=0 sda_oe=1 byte_done=0 rx=0x14
t=2355000 | en=1 scl=0 sda_in=0 | sda_out=1 sda_oe=1 byte_done=0 rx=0x14
t=2356000 | en=1 scl=0 sda_in=1 | sda_out=1 sda_oe=1 byte_done=0 rx=0x14
t=2366000 | en=1 scl=1 sda_in=1 | sda_out=1 sda_oe=1 byte_done=0 rx=0x14
t=2385000 | en=1 scl=1 sda_in=1 | sda_out=1 sda_oe=1 byte_done=0 rx=0x29
t=2386000 | en=1 scl=0 sda_in=1 | sda_out=1 sda_oe=1 byte_done=0 rx=0x29
t=2405000 | en=1 scl=0 sda_in=1 | sda_out=0 sda_oe=1 byte_done=0 rx=0x29
t=2406000 | en=1 scl=0 sda_in=0 | sda_out=0 sda_oe=1 byte_done=0 rx=0x29
t=2416000 | en=1 scl=1 sda_in=0 | sda_out=0 sda_oe=1 byte_done=0 rx=0x29
t=2435000 | en=1 scl=1 sda_in=0 | sda_out=0 sda_oe=1 byte_done=0 rx=0x52
t=2436000 | en=1 scl=0 sda_in=0 | sda_out=0 sda_oe=1 byte_done=0 rx=0x52
t=2455000 | en=1 scl=0 sda_in=0 | sda_out=1 sda_oe=1 byte_done=0 rx=0x52
t=2456000 | en=1 scl=0 sda_in=1 | sda_out=1 sda_oe=1 byte_done=0 rx=0x52
t=2466000 | en=1 scl=1 sda_in=1 | sda_out=1 sda_oe=1 byte_done=0 rx=0x52
t=2485000 | en=1 scl=1 sda_in=1 | sda_out=1 sda_oe=1 byte_done=0 rx=0xa5
t=2486000 | en=1 scl=0 sda_in=1 | sda_out=1 sda_oe=1 byte_done=0 rx=0xa5
t=2516000 | en=1 scl=1 sda_in=1 | sda_out=1 sda_oe=1 byte_done=0 rx=0xa5
t=2525000 | en=1 scl=1 sda_in=1 | sda_out=1 sda_oe=1 byte_done=1 rx=0xa5
t=2535000 | en=1 scl=1 sda_in=1 | sda_out=1 sda_oe=1 byte_done=0 rx=0x4b
PASS [SDA_SAMPLED_NACK] got=1
    sda_sampled=1 = NACK ✅
--- TEST7: Disable mid byte ---
t=2556000 | en=0 scl=1 sda_in=1 | sda_out=1 sda_oe=0 byte_done=0 rx=0x00
t=2596000 | en=1 scl=0 sda_in=1 | sda_out=1 sda_oe=0 byte_done=0 rx=0x00
t=2605000 | en=1 scl=0 sda_in=1 | sda_out=1 sda_oe=1 byte_done=0 rx=0x00
t=2616000 | en=1 scl=0 sda_in=0 | sda_out=1 sda_oe=1 byte_done=0 rx=0x00
t=2626000 | en=1 scl=1 sda_in=0 | sda_out=1 sda_oe=1 byte_done=0 rx=0x00
t=2646000 | en=1 scl=0 sda_in=0 | sda_out=1 sda_oe=1 byte_done=0 rx=0x00
t=2665000 | en=1 scl=0 sda_in=0 | sda_out=0 sda_oe=1 byte_done=0 rx=0x00
t=2676000 | en=1 scl=1 sda_in=0 | sda_out=0 sda_oe=1 byte_done=0 rx=0x00
t=2696000 | en=1 scl=0 sda_in=0 | sda_out=0 sda_oe=1 byte_done=0 rx=0x00
t=2715000 | en=1 scl=0 sda_in=0 | sda_out=1 sda_oe=1 byte_done=0 rx=0x00
t=2726000 | en=1 scl=1 sda_in=0 | sda_out=1 sda_oe=1 byte_done=0 rx=0x00
t=2746000 | en=1 scl=0 sda_in=0 | sda_out=1 sda_oe=1 byte_done=0 rx=0x00
t=2765000 | en=1 scl=0 sda_in=0 | sda_out=0 sda_oe=1 byte_done=0 rx=0x00
t=2776000 | en=1 scl=1 sda_in=0 | sda_out=0 sda_oe=1 byte_done=0 rx=0x00
t=2796000 | en=0 scl=1 sda_in=0 | sda_out=0 sda_oe=1 byte_done=0 rx=0x00
t=2805000 | en=0 scl=1 sda_in=0 | sda_out=0 sda_oe=0 byte_done=0 rx=0x00
PASS [DISABLE_SDA_OE_LOW] got=0
    SDA released after disable ✅
--- TEST8: Back to back bytes ---
t=2816000 | en=0 scl=1 sda_in=1 | sda_out=1 sda_oe=0 byte_done=0 rx=0x00
t=2856000 | en=1 scl=0 sda_in=1 | sda_out=1 sda_oe=0 byte_done=0 rx=0x00
t=2865000 | en=1 scl=0 sda_in=1 | sda_out=1 sda_oe=1 byte_done=0 rx=0x00
t=2886000 | en=1 scl=1 sda_in=1 | sda_out=1 sda_oe=1 byte_done=0 rx=0x00
t=2905000 | en=1 scl=1 sda_in=1 | sda_out=1 sda_oe=1 byte_done=0 rx=0x01
t=2906000 | en=1 scl=0 sda_in=1 | sda_out=1 sda_oe=1 byte_done=0 rx=0x01
t=2925000 | en=1 scl=0 sda_in=1 | sda_out=0 sda_oe=1 byte_done=0 rx=0x01
t=2926000 | en=1 scl=0 sda_in=0 | sda_out=0 sda_oe=1 byte_done=0 rx=0x01
t=2936000 | en=1 scl=1 sda_in=0 | sda_out=0 sda_oe=1 byte_done=0 rx=0x01
t=2955000 | en=1 scl=1 sda_in=0 | sda_out=0 sda_oe=1 byte_done=0 rx=0x02
t=2956000 | en=1 scl=0 sda_in=0 | sda_out=0 sda_oe=1 byte_done=0 rx=0x02
t=2975000 | en=1 scl=0 sda_in=0 | sda_out=1 sda_oe=1 byte_done=0 rx=0x02
t=2976000 | en=1 scl=0 sda_in=1 | sda_out=1 sda_oe=1 byte_done=0 rx=0x02
t=2986000 | en=1 scl=1 sda_in=1 | sda_out=1 sda_oe=1 byte_done=0 rx=0x02
t=3005000 | en=1 scl=1 sda_in=1 | sda_out=1 sda_oe=1 byte_done=0 rx=0x05
t=3006000 | en=1 scl=0 sda_in=1 | sda_out=1 sda_oe=1 byte_done=0 rx=0x05
t=3025000 | en=1 scl=0 sda_in=1 | sda_out=0 sda_oe=1 byte_done=0 rx=0x05
t=3026000 | en=1 scl=0 sda_in=0 | sda_out=0 sda_oe=1 byte_done=0 rx=0x05
t=3036000 | en=1 scl=1 sda_in=0 | sda_out=0 sda_oe=1 byte_done=0 rx=0x05
t=3055000 | en=1 scl=1 sda_in=0 | sda_out=0 sda_oe=1 byte_done=0 rx=0x0a
